Project 2: Modeling, Testing, and Predicting
…
            Project 2: Modeling, Testing, and Predicting

         January 1, 0001 

Introduction

The data set being analyzed here is called Participation; it contains 872 observations with a total of 8 variables, to measure the work force participation in Switzerland. The “X1” variable gives a number to each individual whose data was collected. The “lfp” variable shows labor force participation status with either “yes” or “no”. The “lnnlinc” variable gives the log of the non-labor income. The “age” variable gives the age of the individual in years divided by 10. The “educ” variable describes the amount of formal education in years. The “nyc” variable gives the number of young children (below the age of 7 years), while the “noc” variable gives the number of older children (7 years or older). Finally, the “foreigner” variable states whether the individual is foreign with “yes” or “no”.

Participation <- read_csv("Participation.csv")
read_csv("Participation.csv")

## # A tibble: 872 x 8
##       X1 lfp   lnnlinc   age  educ   nyc   noc foreign
##    <dbl> <chr>   <dbl> <dbl> <dbl> <dbl> <dbl> <chr>  
##  1     1 no       10.8   3       8     1     1 no     
##  2     2 yes      10.5   4.5     8     0     1 no     
##  3     3 no       11.0   4.6     9     0     0 no     
##  4     4 no       11.1   3.1    11     2     0 no     
##  5     5 no       11.1   4.4    12     0     2 no     
##  6     6 yes      11.0   4.2    12     0     1 no     
##  7     7 no       11.5   5.1     8     0     0 no     
##  8     8 yes      10.5   3.2     8     0     2 no     
##  9     9 no       10.6   3.9    12     0     0 no     
## 10    10 no       10.5   4.3    11     0     2 no     
## # … with 862 more rows
…
